task-1/_sim/sqrt.vcd
$date
	Thu Dec  4 10:10:00 2025
$end
$version
	Icarus Verilog
$end
$timescale
	1s
$end
$scope module sqrt_tb $end
$var wire 32 ! sqrt_result [31:0] $end
$var wire 1 " sqrt_output_valid $end
$var wire 1 # sqrt_output_busy $end
$var reg 1 $ clk $end
$var reg 1 % reset $end
$var reg 32 & sqrt_inp_a [31:0] $end
$var reg 1 ' sqrt_inp_start $end
$var reg 32 ( sqrt_result_ref [31:0] $end
$var integer 32 ) inp_file [31:0] $end
$var integer 32 * outp_file [31:0] $end
$var integer 32 + ret [31:0] $end
$var integer 32 , ticks [31:0] $end
$scope module dut $end
$var wire 32 - a_i [31:0] $end
$var wire 1 $ clk_i $end
$var wire 32 . result_o [31:0] $end
$var wire 1 % rst_i $end
$var wire 1 ' start_i $end
$var wire 1 " valid_o $end
$var wire 1 # busy_o $end
$var reg 32 / a_reg [31:0] $end
$var reg 32 0 d_reg [31:0] $end
$var reg 2 1 next_state [1:0] $end
$var reg 32 2 r_reg [31:0] $end
$var reg 2 3 state [1:0] $end
$var reg 1 4 valid_reg $end
$var reg 32 5 x_reg [31:0] $end
$upscope $end
$scope task reset_dut $end
$var reg 1 6 rst $end
$upscope $end
$scope task run_test_advanced $end
$upscope $end
$scope task run_testcase $end
$var integer 32 7 out_file [31:0] $end
$var integer 32 8 ret [31:0] $end
$var integer 32 9 tc_file [31:0] $end
$upscope $end
$upscope $end
$enddefinitions $end
$comment Show the parameter values. $end
$dumpall
$end
#0
$dumpvars
bx 9
bx 8
bx 7
06
b0 5
04
b0 3
b0 2
b0 1
b0 0
b0 /
b0 .
bx -
b0 ,
bx +
bx *
bx )
bx (
x'
bx &
1%
0$
0#
0"
b0 !
$end
#2
1$
#3
b100 (
b10000 &
b10000 -
b10 8
b10000000000000000000000000000100 7
b10000000000000000000000000000011 9
0'
b10000000000000000000000000000100 *
b10000000000000000000000000000011 )
b1 +
1%
#4
0$
#6
b1 ,
1$
0%
#8
0$
#10
1#
b1 3
b1000000000000000000000000000000 0
b10000 5
b10000 /
b10 ,
b1 1
1$
1'
#12
0$
#14
b11 ,
b10000000000000000000000000000 0
1$
0'
#16
0$
#18
b100000000000000000000000000 0
b100 ,
1$
#20
0$
#22
b101 ,
b1000000000000000000000000 0
1$
#24
0$
#26
b10000000000000000000000 0
b110 ,
1$
#28
0$
#30
b111 ,
b100000000000000000000 0
1$
#32
0$
#34
b1000000000000000000 0
b1000 ,
1$
#36
0$
#38
b1001 ,
b10000000000000000 0
1$
#40
0$
#42
b100000000000000 0
b1010 ,
1$
#44
0$
#46
b1011 ,
b1000000000000 0
1$
#48
0$
#50
b10000000000 0
b1100 ,
1$
#52
0$
#54
b1101 ,
b100000000 0
1$
#56
0$
#58
b1000000 0
b1110 ,
1$
#60
0$
#62
b10 1
b1111 ,
b10000 0
1$
#64
0$
#66
b10 3
b10000 ,
1$
#68
0$
#70
b10001 ,
b100 0
b10000 !
b10000 .
b10000 2
b0 5
1$
#72
0$
#74
b1 0
b1000 !
b1000 .
b1000 2
b10010 ,
1$
#76
0$
#78
b0 1
b10011 ,
b0 0
b100 !
b100 .
b100 2
1$
#80
0$
#82
1"
14
0#
b0 3
b10100 ,
1$
#84
0$
#86
b0 ,
b0 /
b0 !
b0 .
b0 2
0"
04
1$
1%
b101 (
b11001 &
b11001 -
b10 8
b10 +
#88
0$
#89
0%
#90
b1 ,
1$
#92
0$
#93
b1 1
1'
#94
b10 ,
b1000000000000000000000000000000 0
b11001 5
b11001 /
1#
b1 3
1$
#96
0$
#97
0'
#98
b10000000000000000000000000000 0
b11 ,
1$
#100
0$
#102
b100 ,
b100000000000000000000000000 0
1$
#104
0$
#106
b1000000000000000000000000 0
b101 ,
1$
#108
0$
#110
b110 ,
b10000000000000000000000 0
1$
#112
0$
#114
b100000000000000000000 0
b111 ,
1$
#116
0$
#118
b1000 ,
b1000000000000000000 0
1$
#120
0$
#122
b10000000000000000 0
b1001 ,
1$
#124
0$
#126
b1010 ,
b100000000000000 0
1$
#128
0$
#130
b1000000000000 0
b1011 ,
1$
#132
0$
#134
b1100 ,
b10000000000 0
1$
#136
0$
#138
b100000000 0
b1101 ,
1$
#140
0$
#142
b1110 ,
b1000000 0
1$
#144
0$
#146
b10 1
b10000 0
b1111 ,
1$
#148
0$
#150
b10000 ,
b10 3
1$
#152
0$
#154
b100 0
b10000 !
b10000 .
b10000 2
b1001 5
b10001 ,
1$
#156
0$
#158
b10010 ,
b1 0
b1000 !
b1000 .
b1000 2
1$
#160
0$
#162
b0 1
b0 0
b101 !
b101 .
b101 2
b0 5
b10011 ,
1$
#164
0$
#166
b10100 ,
1"
14
0#
b0 3
1$
#168
0$
#170
0"
04
b0 /
b0 !
b0 .
b0 2
b0 ,
1$
1%
b11 (
b1001 &
b1001 -
b10 8
#172
0$
#173
0%
#174
b1 ,
1$
#176
0$
#177
b1 1
1'
#178
1#
b1 3
b1000000000000000000000000000000 0
b1001 5
b1001 /
b10 ,
1$
#180
0$
#181
0'
#182
b11 ,
b10000000000000000000000000000 0
1$
#184
0$
#186
b100000000000000000000000000 0
b100 ,
1$
#188
0$
#190
b101 ,
b1000000000000000000000000 0
1$
#192
0$
#194
b10000000000000000000000 0
b110 ,
1$
#196
0$
#198
b111 ,
b100000000000000000000 0
1$
#200
0$
#202
b1000000000000000000 0
b1000 ,
1$
#204
0$
#206
b1001 ,
b10000000000000000 0
1$
#208
0$
#210
b100000000000000 0
b1010 ,
1$
#212
0$
#214
b1011 ,
b1000000000000 0
1$
#216
0$
#218
b10000000000 0
b1100 ,
1$
#220
0$
#222
b1101 ,
b100000000 0
1$
#224
0$
#226
b1000000 0
b1110 ,
1$
#228
0$
#230
b1111 ,
b10000 0
1$
#232
0$
#234
b10 1
b100 0
b10000 ,
1$
#236
0$
#238
b10001 ,
b10 3
1$
#240
0$
#242
b1 0
b100 !
b100 .
b100 2
b101 5
b10010 ,
1$
#244
0$
#246
b0 1
b10011 ,
b0 0
b11 !
b11 .
b11 2
b0 5
1$
#248
0$
#250
1"
14
0#
b0 3
b10100 ,
1$
#252
0$
#254
b0 ,
b0 /
b0 !
b0 .
b0 2
0"
04
1$
1%
b10 (
b100 &
b100 -
b10 8
#256
0$
#257
0%
#258
b1 ,
1$
#260
0$
#261
b1 1
1'
#262
b10 ,
b1000000000000000000000000000000 0
b100 5
b100 /
1#
b1 3
1$
#264
0$
#265
0'
#266
b10000000000000000000000000000 0
b11 ,
1$
#268
0$
#270
b100 ,
b100000000000000000000000000 0
1$
#272
0$
#274
b1000000000000000000000000 0
b101 ,
1$
#276
0$
#278
b110 ,
b10000000000000000000000 0
1$
#280
0$
#282
b100000000000000000000 0
b111 ,
1$
#284
0$
#286
b1000 ,
b1000000000000000000 0
1$
#288
0$
#290
b10000000000000000 0
b1001 ,
1$
#292
0$
#294
b1010 ,
b100000000000000 0
1$
#296
0$
#298
b1000000000000 0
b1011 ,
1$
#300
0$
#302
b1100 ,
b10000000000 0
1$
#304
0$
#306
b100000000 0
b1101 ,
1$
#308
0$
#310
b1110 ,
b1000000 0
1$
#312
0$
#314
b10000 0
b1111 ,
1$
#316
0$
#318
b10 1
b10000 ,
b100 0
1$
#320
0$
#322
b10 3
b10001 ,
1$
#324
0$
#326
b10010 ,
b1 0
b100 !
b100 .
b100 2
b0 5
1$
#328
0$
#330
b0 1
b0 0
b10 !
b10 .
b10 2
b10011 ,
1$
#332
0$
#334
b10100 ,
1"
14
0#
b0 3
1$
#336
0$
#338
0"
04
b0 /
b0 !
b0 .
b0 2
b0 ,
1$
1%
b0 (
b0 &
b0 -
b10 8
#340
0$
#341
0%
#342
b1 ,
1$
#344
0$
#345
b1 1
1'
#346
1#
b1 3
b1000000000000000000000000000000 0
b10 ,
1$
#348
0$
#349
0'
#350
b11 ,
b10000000000000000000000000000 0
1$
#352
0$
#354
b100000000000000000000000000 0
b100 ,
1$
#356
0$
#358
b101 ,
b1000000000000000000000000 0
1$
#360
0$
#362
b10000000000000000000000 0
b110 ,
1$
#364
0$
#366
b111 ,
b100000000000000000000 0
1$
#368
0$
#370
b1000000000000000000 0
b1000 ,
1$
#372
0$
#374
b1001 ,
b10000000000000000 0
1$
#376
0$
#378
b100000000000000 0
b1010 ,
1$
#380
0$
#382
b1011 ,
b1000000000000 0
1$
#384
0$
#386
b10000000000 0
b1100 ,
1$
#388
0$
#390
b1101 ,
b100000000 0
1$
#392
0$
#394
b1000000 0
b1110 ,
1$
#396
0$
#398
b1111 ,
b10000 0
1$
#400
0$
#402
b100 0
b10000 ,
1$
#404
0$
#406
b10001 ,
b1 0
1$
#408
0$
#410
b10 1
b0 0
b10010 ,
1$
#412
0$
#414
b0 1
b10011 ,
b10 3
1$
#416
0$
#418
1"
14
0#
b0 3
b10100 ,
1$
#420
0$
#422
b0 ,
0"
04
1$
1%
b10 (
b101 &
b101 -
b10 8
#424
0$
#425
0%
#426
b1 ,
1$
#428
0$
#429
b1 1
1'
#430
b10 ,
b1000000000000000000000000000000 0
b101 5
b101 /
1#
b1 3
1$
#432
0$
#433
0'
#434
b10000000000000000000000000000 0
b11 ,
1$
#436
0$
#438
b100 ,
b100000000000000000000000000 0
1$
#440
0$
#442
b1000000000000000000000000 0
b101 ,
1$
#444
0$
#446
b110 ,
b10000000000000000000000 0
1$
#448
0$
#450
b100000000000000000000 0
b111 ,
1$
#452
0$
#454
b1000 ,
b1000000000000000000 0
1$
#456
0$
#458
b10000000000000000 0
b1001 ,
1$
#460
0$
#462
b1010 ,
b100000000000000 0
1$
#464
0$
#466
b1000000000000 0
b1011 ,
1$
#468
0$
#470
b1100 ,
b10000000000 0
1$
#472
0$
#474
b100000000 0
b1101 ,
1$
#476
0$
#478
b1110 ,
b1000000 0
1$
#480
0$
#482
b10000 0
b1111 ,
1$
#484
0$
#486
b10 1
b10000 ,
b100 0
1$
#488
0$
#490
b10 3
b10001 ,
1$
#492
0$
#494
b10010 ,
b1 0
b100 !
b100 .
b100 2
b1 5
1$
#496
0$
#498
b0 1
b0 0
b10 !
b10 .
b10 2
b10011 ,
1$
#500
0$
#502
b10100 ,
1"
14
0#
b0 3
1$
#504
0$
#506
0"
04
b0 /
b0 !
b0 .
b0 2
b0 5
b0 ,
1$
1%
b1 (
b1 &
b1 -
b10 8
#508
0$
#509
0%
#510
b1 ,
1$
#512
0$
#513
b1 1
1'
#514
1#
b1 3
b1000000000000000000000000000000 0
b1 5
b1 /
b10 ,
1$
#516
0$
#517
0'
#518
b11 ,
b10000000000000000000000000000 0
1$
#520
0$
#522
b100000000000000000000000000 0
b100 ,
1$
#524
0$
#526
b101 ,
b1000000000000000000000000 0
1$
#528
0$
#530
b10000000000000000000000 0
b110 ,
1$
#532
0$
#534
b111 ,
b100000000000000000000 0
1$
#536
0$
#538
b1000000000000000000 0
b1000 ,
1$
#540
0$
#542
b1001 ,
b10000000000000000 0
1$
#544
0$
#546
b100000000000000 0
b1010 ,
1$
#548
0$
#550
b1011 ,
b1000000000000 0
1$
#552
0$
#554
b10000000000 0
b1100 ,
1$
#556
0$
#558
b1101 ,
b100000000 0
1$
#560
0$
#562
b1000000 0
b1110 ,
1$
#564
0$
#566
b1111 ,
b10000 0
1$
#568
0$
#570
b100 0
b10000 ,
1$
#572
0$
#574
b10 1
b10001 ,
b1 0
1$
#576
0$
#578
b10 3
b10010 ,
1$
#580
0$
#582
b0 1
b10011 ,
b0 0
b1 !
b1 .
b1 2
b0 5
1$
#584
0$
#586
1"
14
0#
b0 3
b10100 ,
1$
#588
0$
#590
b0 ,
b0 /
b0 !
b0 .
b0 2
0"
04
1$
1%
b0 +
b1000000 &
b1000000 -
b0 8
#592
0$
#593
0%
#594
b1 ,
1$
#596
0$
#597
b1 1
1'
#598
b10 ,
b1000000000000000000000000000000 0
b1000000 5
b1000000 /
1#
b1 3
1$
#600
0$
#601
0'
#602
b10000000000000000000000000000 0
b11 ,
1$
#604
0$
#606
b100 ,
b100000000000000000000000000 0
1$
#608
0$
#610
b1000000000000000000000000 0
b101 ,
1$
#612
0$
#614
b110 ,
b10000000000000000000000 0
1$
#616
0$
#618
b100000000000000000000 0
b111 ,
1$
#620
0$
#622
b1000 ,
b1000000000000000000 0
1$
#624
0$
#626
b10000000000000000 0
b1001 ,
1$
#628
0$
#630
b1010 ,
b100000000000000 0
1$
#632
0$
#634
b1000000000000 0
b1011 ,
1$
#636
0$
#638
b1100 ,
b10000000000 0
1$
#640
0$
#642
b100000000 0
b1101 ,
1$
#644
0$
#646
b10 1
b1110 ,
b1000000 0
1$
#648
0$
#650
b10 3
b1111 ,
1$
#652
0$
#654
b10000 ,
b10000 0
b1000000 !
b1000000 .
b1000000 2
b0 5
1$
#656
0$
#658
b100 0
b100000 !
b100000 .
b100000 2
b10001 ,
1$
#660
0$
#662
b10010 ,
b1 0
b10000 !
b10000 .
b10000 2
1$
#664
0$
#666
b0 1
b0 0
b1000 !
b1000 .
b1000 2
b10011 ,
1$
#668
0$
#670
b10100 ,
1"
14
0#
b0 3
1$
#672
0$
#674
b10101 ,
1$
#675
b1 1
1'
#676
b1 1
1'
0$
#677
b0 1
0'
#678
b10110 ,
1$
#679
b1 1
1'
#680
b1 1
b11001 &
b11001 -
1'
0$
#682
0"
04
1#
b1 3
b1000000000000000000000000000000 0
b0 !
b0 .
b0 2
b11001 5
b11001 /
b10111 ,
1$
#684
0$
0'
#686
b11000 ,
b10000000000000000000000000000 0
1$
#688
0$
1'
b1001 &
b1001 -
#690
b100000000000000000000000000 0
b11001 ,
1$
#692
0$
0'
#694
b11010 ,
b1000000000000000000000000 0
1$
#696
0$
#698
b10000000000000000000000 0
b11011 ,
1$
#700
0$
#702
b11100 ,
b100000000000000000000 0
1$
#704
0$
#706
b1000000000000000000 0
b11101 ,
1$
#708
0$
#710
b11110 ,
b10000000000000000 0
1$
#712
0$
#714
b100000000000000 0
b11111 ,
1$
#716
0$
#718
b100000 ,
b1000000000000 0
1$
#720
0$
#722
b10000000000 0
b100001 ,
1$
#724
0$
#726
b100010 ,
b100000000 0
1$
#728
0$
#730
b1000000 0
b100011 ,
1$
#732
0$
#734
b10 1
b100100 ,
b10000 0
1$
#736
0$
#738
b10 3
b100101 ,
1$
#740
0$
#742
b100110 ,
b100 0
b10000 !
b10000 .
b10000 2
b1001 5
1$
#744
0$
#746
b1 0
b1000 !
b1000 .
b1000 2
b100111 ,
1$
#748
0$
#750
b0 1
b101000 ,
b0 0
b101 !
b101 .
b101 2
b0 5
1$
#752
0$
#754
1"
14
0#
b0 3
b101001 ,
1$
